<mxfile host="app.diagrams.net" modified="2020-06-13T14:18:26.710Z" agent="5.0 (Windows NT 10.0; WOW64) AppleWebKit/537.36 (KHTML, like Gecko) Chrome/81.0.4044.138 Safari/537.36" etag="U1vGUOe8es2M13dxxSiz" version="13.2.4" type="gitlab">
  <diagram id="uYrFRV5MWOhAtVoKSwM6" name="Page-1">
    <mxGraphModel dx="1422" dy="762" grid="1" gridSize="10" guides="1" tooltips="1" connect="1" arrows="1" fold="1" page="1" pageScale="1" pageWidth="827" pageHeight="1169" math="0" shadow="0">
      <root>
        <mxCell id="0" />
        <mxCell id="1" parent="0" />
        <mxCell id="CdtWvo1D5bKg0D1mY81U-3" style="edgeStyle=orthogonalEdgeStyle;rounded=0;orthogonalLoop=1;jettySize=auto;html=1;" edge="1" parent="1" source="CdtWvo1D5bKg0D1mY81U-1" target="CdtWvo1D5bKg0D1mY81U-2">
          <mxGeometry relative="1" as="geometry" />
        </mxCell>
        <mxCell id="CdtWvo1D5bKg0D1mY81U-1" value="开始" style="rounded=1;whiteSpace=wrap;html=1;" vertex="1" parent="1">
          <mxGeometry x="140" y="180" width="50" height="30" as="geometry" />
        </mxCell>
        <mxCell id="CdtWvo1D5bKg0D1mY81U-5" style="edgeStyle=orthogonalEdgeStyle;rounded=0;orthogonalLoop=1;jettySize=auto;html=1;" edge="1" parent="1" source="CdtWvo1D5bKg0D1mY81U-2" target="CdtWvo1D5bKg0D1mY81U-4">
          <mxGeometry relative="1" as="geometry" />
        </mxCell>
        <mxCell id="CdtWvo1D5bKg0D1mY81U-2" value="1.初始数据集" style="rounded=0;whiteSpace=wrap;html=1;" vertex="1" parent="1">
          <mxGeometry x="100" y="230" width="130" height="40" as="geometry" />
        </mxCell>
        <mxCell id="CdtWvo1D5bKg0D1mY81U-7" value="" style="edgeStyle=orthogonalEdgeStyle;rounded=0;orthogonalLoop=1;jettySize=auto;html=1;" edge="1" parent="1" source="CdtWvo1D5bKg0D1mY81U-4" target="CdtWvo1D5bKg0D1mY81U-6">
          <mxGeometry relative="1" as="geometry" />
        </mxCell>
        <mxCell id="CdtWvo1D5bKg0D1mY81U-4" value="2.数据加载" style="rounded=0;whiteSpace=wrap;html=1;" vertex="1" parent="1">
          <mxGeometry x="100" y="290" width="130" height="40" as="geometry" />
        </mxCell>
        <mxCell id="CdtWvo1D5bKg0D1mY81U-10" value="" style="edgeStyle=orthogonalEdgeStyle;rounded=0;orthogonalLoop=1;jettySize=auto;html=1;" edge="1" parent="1" source="CdtWvo1D5bKg0D1mY81U-6" target="CdtWvo1D5bKg0D1mY81U-9">
          <mxGeometry relative="1" as="geometry" />
        </mxCell>
        <mxCell id="CdtWvo1D5bKg0D1mY81U-6" value="3.插入蔬菜" style="rounded=0;whiteSpace=wrap;html=1;" vertex="1" parent="1">
          <mxGeometry x="107.5" y="350" width="115" height="40" as="geometry" />
        </mxCell>
        <mxCell id="CdtWvo1D5bKg0D1mY81U-12" value="" style="edgeStyle=orthogonalEdgeStyle;rounded=0;orthogonalLoop=1;jettySize=auto;html=1;" edge="1" parent="1" source="CdtWvo1D5bKg0D1mY81U-9" target="CdtWvo1D5bKg0D1mY81U-11">
          <mxGeometry relative="1" as="geometry" />
        </mxCell>
        <mxCell id="CdtWvo1D5bKg0D1mY81U-9" value="4.删除蔬菜" style="rounded=0;whiteSpace=wrap;html=1;" vertex="1" parent="1">
          <mxGeometry x="107.5" y="410" width="115" height="40" as="geometry" />
        </mxCell>
        <mxCell id="CdtWvo1D5bKg0D1mY81U-14" value="" style="edgeStyle=orthogonalEdgeStyle;rounded=0;orthogonalLoop=1;jettySize=auto;html=1;" edge="1" parent="1" source="CdtWvo1D5bKg0D1mY81U-11" target="CdtWvo1D5bKg0D1mY81U-13">
          <mxGeometry relative="1" as="geometry" />
        </mxCell>
        <mxCell id="CdtWvo1D5bKg0D1mY81U-11" value="5.修改蔬菜" style="rounded=0;whiteSpace=wrap;html=1;" vertex="1" parent="1">
          <mxGeometry x="107.5" y="470" width="115" height="40" as="geometry" />
        </mxCell>
        <mxCell id="CdtWvo1D5bKg0D1mY81U-16" value="" style="edgeStyle=orthogonalEdgeStyle;rounded=0;orthogonalLoop=1;jettySize=auto;html=1;" edge="1" parent="1" source="CdtWvo1D5bKg0D1mY81U-13" target="CdtWvo1D5bKg0D1mY81U-15">
          <mxGeometry relative="1" as="geometry" />
        </mxCell>
        <mxCell id="CdtWvo1D5bKg0D1mY81U-13" value="6.插入蔬菜基本信息" style="rounded=0;whiteSpace=wrap;html=1;" vertex="1" parent="1">
          <mxGeometry x="107.5" y="530" width="115" height="40" as="geometry" />
        </mxCell>
        <mxCell id="CdtWvo1D5bKg0D1mY81U-18" value="" style="edgeStyle=orthogonalEdgeStyle;rounded=0;orthogonalLoop=1;jettySize=auto;html=1;" edge="1" parent="1" source="CdtWvo1D5bKg0D1mY81U-15" target="CdtWvo1D5bKg0D1mY81U-17">
          <mxGeometry relative="1" as="geometry" />
        </mxCell>
        <mxCell id="CdtWvo1D5bKg0D1mY81U-15" value="7.修改蔬菜基本信息" style="rounded=0;whiteSpace=wrap;html=1;" vertex="1" parent="1">
          <mxGeometry x="107.5" y="590" width="115" height="40" as="geometry" />
        </mxCell>
        <mxCell id="CdtWvo1D5bKg0D1mY81U-20" value="" style="edgeStyle=orthogonalEdgeStyle;rounded=0;orthogonalLoop=1;jettySize=auto;html=1;" edge="1" parent="1" source="CdtWvo1D5bKg0D1mY81U-17" target="CdtWvo1D5bKg0D1mY81U-19">
          <mxGeometry relative="1" as="geometry" />
        </mxCell>
        <mxCell id="CdtWvo1D5bKg0D1mY81U-17" value="8.删除蔬菜基本信息" style="rounded=0;whiteSpace=wrap;html=1;" vertex="1" parent="1">
          <mxGeometry x="107.5" y="650" width="115" height="40" as="geometry" />
        </mxCell>
        <mxCell id="CdtWvo1D5bKg0D1mY81U-22" value="" style="edgeStyle=orthogonalEdgeStyle;rounded=0;orthogonalLoop=1;jettySize=auto;html=1;" edge="1" parent="1" source="CdtWvo1D5bKg0D1mY81U-19" target="CdtWvo1D5bKg0D1mY81U-21">
          <mxGeometry relative="1" as="geometry" />
        </mxCell>
        <mxCell id="CdtWvo1D5bKg0D1mY81U-19" value="9.插入蔬菜种植信息" style="rounded=0;whiteSpace=wrap;html=1;" vertex="1" parent="1">
          <mxGeometry x="265" y="650" width="130" height="40" as="geometry" />
        </mxCell>
        <mxCell id="CdtWvo1D5bKg0D1mY81U-38" value="" style="edgeStyle=orthogonalEdgeStyle;rounded=0;orthogonalLoop=1;jettySize=auto;html=1;" edge="1" parent="1" source="CdtWvo1D5bKg0D1mY81U-21" target="CdtWvo1D5bKg0D1mY81U-37">
          <mxGeometry relative="1" as="geometry" />
        </mxCell>
        <mxCell id="CdtWvo1D5bKg0D1mY81U-21" value="10.修改蔬菜种植信息" style="rounded=0;whiteSpace=wrap;html=1;" vertex="1" parent="1">
          <mxGeometry x="265" y="590" width="130" height="40" as="geometry" />
        </mxCell>
        <mxCell id="CdtWvo1D5bKg0D1mY81U-40" value="" style="edgeStyle=orthogonalEdgeStyle;rounded=0;orthogonalLoop=1;jettySize=auto;html=1;" edge="1" parent="1" source="CdtWvo1D5bKg0D1mY81U-37" target="CdtWvo1D5bKg0D1mY81U-39">
          <mxGeometry relative="1" as="geometry" />
        </mxCell>
        <mxCell id="CdtWvo1D5bKg0D1mY81U-37" value="11.删除蔬菜种植信息" style="rounded=0;whiteSpace=wrap;html=1;" vertex="1" parent="1">
          <mxGeometry x="265" y="530" width="130" height="40" as="geometry" />
        </mxCell>
        <mxCell id="CdtWvo1D5bKg0D1mY81U-42" value="" style="edgeStyle=orthogonalEdgeStyle;rounded=0;orthogonalLoop=1;jettySize=auto;html=1;" edge="1" parent="1" source="CdtWvo1D5bKg0D1mY81U-39" target="CdtWvo1D5bKg0D1mY81U-41">
          <mxGeometry relative="1" as="geometry" />
        </mxCell>
        <mxCell id="CdtWvo1D5bKg0D1mY81U-39" value="12.导出蔬菜种类信息" style="rounded=0;whiteSpace=wrap;html=1;" vertex="1" parent="1">
          <mxGeometry x="265" y="470" width="130" height="40" as="geometry" />
        </mxCell>
        <mxCell id="CdtWvo1D5bKg0D1mY81U-44" value="" style="edgeStyle=orthogonalEdgeStyle;rounded=0;orthogonalLoop=1;jettySize=auto;html=1;" edge="1" parent="1" source="CdtWvo1D5bKg0D1mY81U-41" target="CdtWvo1D5bKg0D1mY81U-43">
          <mxGeometry relative="1" as="geometry" />
        </mxCell>
        <mxCell id="CdtWvo1D5bKg0D1mY81U-41" value="13.导出蔬菜基本信息" style="rounded=0;whiteSpace=wrap;html=1;" vertex="1" parent="1">
          <mxGeometry x="265" y="410" width="130" height="40" as="geometry" />
        </mxCell>
        <mxCell id="CdtWvo1D5bKg0D1mY81U-46" value="" style="edgeStyle=orthogonalEdgeStyle;rounded=0;orthogonalLoop=1;jettySize=auto;html=1;" edge="1" parent="1" source="CdtWvo1D5bKg0D1mY81U-43" target="CdtWvo1D5bKg0D1mY81U-45">
          <mxGeometry relative="1" as="geometry" />
        </mxCell>
        <mxCell id="CdtWvo1D5bKg0D1mY81U-43" value="14.导出蔬菜种植信息" style="rounded=0;whiteSpace=wrap;html=1;" vertex="1" parent="1">
          <mxGeometry x="265" y="350" width="130" height="40" as="geometry" />
        </mxCell>
        <mxCell id="CdtWvo1D5bKg0D1mY81U-48" value="" style="edgeStyle=orthogonalEdgeStyle;rounded=0;orthogonalLoop=1;jettySize=auto;html=1;" edge="1" parent="1" source="CdtWvo1D5bKg0D1mY81U-45" target="CdtWvo1D5bKg0D1mY81U-47">
          <mxGeometry relative="1" as="geometry" />
        </mxCell>
        <mxCell id="CdtWvo1D5bKg0D1mY81U-45" value="15.数据保存" style="rounded=0;whiteSpace=wrap;html=1;" vertex="1" parent="1">
          <mxGeometry x="265" y="290" width="130" height="40" as="geometry" />
        </mxCell>
        <mxCell id="CdtWvo1D5bKg0D1mY81U-50" value="" style="edgeStyle=orthogonalEdgeStyle;rounded=0;orthogonalLoop=1;jettySize=auto;html=1;" edge="1" parent="1" source="CdtWvo1D5bKg0D1mY81U-47" target="CdtWvo1D5bKg0D1mY81U-49">
          <mxGeometry relative="1" as="geometry" />
        </mxCell>
        <mxCell id="CdtWvo1D5bKg0D1mY81U-47" value="16.数据种类筛选" style="rounded=0;whiteSpace=wrap;html=1;" vertex="1" parent="1">
          <mxGeometry x="265" y="230" width="130" height="40" as="geometry" />
        </mxCell>
        <mxCell id="CdtWvo1D5bKg0D1mY81U-52" value="" style="edgeStyle=orthogonalEdgeStyle;rounded=0;orthogonalLoop=1;jettySize=auto;html=1;" edge="1" parent="1" source="CdtWvo1D5bKg0D1mY81U-49" target="CdtWvo1D5bKg0D1mY81U-51">
          <mxGeometry relative="1" as="geometry" />
        </mxCell>
        <mxCell id="CdtWvo1D5bKg0D1mY81U-49" value="17.数据营养成分筛选" style="rounded=0;whiteSpace=wrap;html=1;" vertex="1" parent="1">
          <mxGeometry x="440" y="230" width="130" height="40" as="geometry" />
        </mxCell>
        <mxCell id="CdtWvo1D5bKg0D1mY81U-54" value="" style="edgeStyle=orthogonalEdgeStyle;rounded=0;orthogonalLoop=1;jettySize=auto;html=1;" edge="1" parent="1" source="CdtWvo1D5bKg0D1mY81U-51" target="CdtWvo1D5bKg0D1mY81U-53">
          <mxGeometry relative="1" as="geometry" />
        </mxCell>
        <mxCell id="CdtWvo1D5bKg0D1mY81U-51" value="18.数据种植年份筛选" style="rounded=0;whiteSpace=wrap;html=1;" vertex="1" parent="1">
          <mxGeometry x="440" y="290" width="130" height="40" as="geometry" />
        </mxCell>
        <mxCell id="CdtWvo1D5bKg0D1mY81U-56" value="" style="edgeStyle=orthogonalEdgeStyle;rounded=0;orthogonalLoop=1;jettySize=auto;html=1;" edge="1" parent="1" source="CdtWvo1D5bKg0D1mY81U-53" target="CdtWvo1D5bKg0D1mY81U-55">
          <mxGeometry relative="1" as="geometry" />
        </mxCell>
        <mxCell id="CdtWvo1D5bKg0D1mY81U-53" value="19.数据种植面积筛选" style="rounded=0;whiteSpace=wrap;html=1;" vertex="1" parent="1">
          <mxGeometry x="440" y="350" width="130" height="40" as="geometry" />
        </mxCell>
        <mxCell id="CdtWvo1D5bKg0D1mY81U-58" value="" style="edgeStyle=orthogonalEdgeStyle;rounded=0;orthogonalLoop=1;jettySize=auto;html=1;" edge="1" parent="1" source="CdtWvo1D5bKg0D1mY81U-55" target="CdtWvo1D5bKg0D1mY81U-57">
          <mxGeometry relative="1" as="geometry" />
        </mxCell>
        <mxCell id="CdtWvo1D5bKg0D1mY81U-55" value="20.数据种植重量筛选" style="rounded=0;whiteSpace=wrap;html=1;" vertex="1" parent="1">
          <mxGeometry x="440" y="410" width="130" height="40" as="geometry" />
        </mxCell>
        <mxCell id="CdtWvo1D5bKg0D1mY81U-60" value="" style="edgeStyle=orthogonalEdgeStyle;rounded=0;orthogonalLoop=1;jettySize=auto;html=1;" edge="1" parent="1" source="CdtWvo1D5bKg0D1mY81U-57" target="CdtWvo1D5bKg0D1mY81U-59">
          <mxGeometry relative="1" as="geometry" />
        </mxCell>
        <mxCell id="CdtWvo1D5bKg0D1mY81U-57" value="21.种类名称查询" style="rounded=0;whiteSpace=wrap;html=1;" vertex="1" parent="1">
          <mxGeometry x="440" y="470" width="130" height="40" as="geometry" />
        </mxCell>
        <mxCell id="CdtWvo1D5bKg0D1mY81U-62" value="" style="edgeStyle=orthogonalEdgeStyle;rounded=0;orthogonalLoop=1;jettySize=auto;html=1;" edge="1" parent="1" source="CdtWvo1D5bKg0D1mY81U-59" target="CdtWvo1D5bKg0D1mY81U-61">
          <mxGeometry relative="1" as="geometry" />
        </mxCell>
        <mxCell id="CdtWvo1D5bKg0D1mY81U-59" value="22.营养成分查询" style="rounded=0;whiteSpace=wrap;html=1;" vertex="1" parent="1">
          <mxGeometry x="440" y="530" width="130" height="40" as="geometry" />
        </mxCell>
        <mxCell id="CdtWvo1D5bKg0D1mY81U-64" value="" style="edgeStyle=orthogonalEdgeStyle;rounded=0;orthogonalLoop=1;jettySize=auto;html=1;" edge="1" parent="1" source="CdtWvo1D5bKg0D1mY81U-61" target="CdtWvo1D5bKg0D1mY81U-63">
          <mxGeometry relative="1" as="geometry" />
        </mxCell>
        <mxCell id="CdtWvo1D5bKg0D1mY81U-61" value="23.种植年份查询" style="rounded=0;whiteSpace=wrap;html=1;" vertex="1" parent="1">
          <mxGeometry x="440" y="590" width="130" height="40" as="geometry" />
        </mxCell>
        <mxCell id="CdtWvo1D5bKg0D1mY81U-66" value="" style="edgeStyle=orthogonalEdgeStyle;rounded=0;orthogonalLoop=1;jettySize=auto;html=1;" edge="1" parent="1" source="CdtWvo1D5bKg0D1mY81U-63" target="CdtWvo1D5bKg0D1mY81U-65">
          <mxGeometry relative="1" as="geometry" />
        </mxCell>
        <mxCell id="CdtWvo1D5bKg0D1mY81U-63" value="24.任意信息的组合查询" style="rounded=0;whiteSpace=wrap;html=1;" vertex="1" parent="1">
          <mxGeometry x="440" y="650" width="130" height="40" as="geometry" />
        </mxCell>
        <mxCell id="CdtWvo1D5bKg0D1mY81U-68" value="" style="edgeStyle=orthogonalEdgeStyle;rounded=0;orthogonalLoop=1;jettySize=auto;html=1;" edge="1" parent="1" source="CdtWvo1D5bKg0D1mY81U-65" target="CdtWvo1D5bKg0D1mY81U-67">
          <mxGeometry relative="1" as="geometry" />
        </mxCell>
        <mxCell id="CdtWvo1D5bKg0D1mY81U-65" value="25.种类蔬菜数量统计" style="rounded=0;whiteSpace=wrap;html=1;" vertex="1" parent="1">
          <mxGeometry x="610" y="650" width="130" height="40" as="geometry" />
        </mxCell>
        <mxCell id="CdtWvo1D5bKg0D1mY81U-70" value="" style="edgeStyle=orthogonalEdgeStyle;rounded=0;orthogonalLoop=1;jettySize=auto;html=1;" edge="1" parent="1" source="CdtWvo1D5bKg0D1mY81U-67" target="CdtWvo1D5bKg0D1mY81U-69">
          <mxGeometry relative="1" as="geometry" />
        </mxCell>
        <mxCell id="CdtWvo1D5bKg0D1mY81U-67" value="26.种类种植重量统计" style="rounded=0;whiteSpace=wrap;html=1;" vertex="1" parent="1">
          <mxGeometry x="610" y="590" width="130" height="40" as="geometry" />
        </mxCell>
        <mxCell id="CdtWvo1D5bKg0D1mY81U-72" value="" style="edgeStyle=orthogonalEdgeStyle;rounded=0;orthogonalLoop=1;jettySize=auto;html=1;" edge="1" parent="1" source="CdtWvo1D5bKg0D1mY81U-69" target="CdtWvo1D5bKg0D1mY81U-71">
          <mxGeometry relative="1" as="geometry" />
        </mxCell>
        <mxCell id="CdtWvo1D5bKg0D1mY81U-69" value="27.种类种植面积统计" style="rounded=0;whiteSpace=wrap;html=1;" vertex="1" parent="1">
          <mxGeometry x="610" y="530" width="130" height="40" as="geometry" />
        </mxCell>
        <mxCell id="CdtWvo1D5bKg0D1mY81U-74" value="" style="edgeStyle=orthogonalEdgeStyle;rounded=0;orthogonalLoop=1;jettySize=auto;html=1;" edge="1" parent="1" source="CdtWvo1D5bKg0D1mY81U-71" target="CdtWvo1D5bKg0D1mY81U-73">
          <mxGeometry relative="1" as="geometry" />
        </mxCell>
        <mxCell id="CdtWvo1D5bKg0D1mY81U-71" value="28.蔬菜种植面积和重量统计" style="rounded=0;whiteSpace=wrap;html=1;" vertex="1" parent="1">
          <mxGeometry x="610" y="470" width="130" height="40" as="geometry" />
        </mxCell>
        <mxCell id="CdtWvo1D5bKg0D1mY81U-73" value="29.蔬菜种植面积和重量统计结果导出" style="rounded=0;whiteSpace=wrap;html=1;" vertex="1" parent="1">
          <mxGeometry x="610" y="410" width="130" height="40" as="geometry" />
        </mxCell>
        <mxCell id="CdtWvo1D5bKg0D1mY81U-23" value="8.删除蔬菜基本信息" style="rounded=0;whiteSpace=wrap;html=1;" vertex="1" parent="1">
          <mxGeometry x="107.5" y="650" width="115" height="40" as="geometry" />
        </mxCell>
        <mxCell id="CdtWvo1D5bKg0D1mY81U-25" value="7.修改蔬菜基本信息" style="rounded=0;whiteSpace=wrap;html=1;" vertex="1" parent="1">
          <mxGeometry x="107.5" y="590" width="115" height="40" as="geometry" />
        </mxCell>
        <mxCell id="CdtWvo1D5bKg0D1mY81U-26" value="6.插入蔬菜基本信息" style="rounded=0;whiteSpace=wrap;html=1;" vertex="1" parent="1">
          <mxGeometry x="107.5" y="530" width="115" height="40" as="geometry" />
        </mxCell>
        <mxCell id="CdtWvo1D5bKg0D1mY81U-27" value="8.删除蔬菜基本信息" style="rounded=0;whiteSpace=wrap;html=1;" vertex="1" parent="1">
          <mxGeometry x="100" y="650" width="130" height="40" as="geometry" />
        </mxCell>
        <mxCell id="CdtWvo1D5bKg0D1mY81U-29" value="7.修改蔬菜基本信息" style="rounded=0;whiteSpace=wrap;html=1;" vertex="1" parent="1">
          <mxGeometry x="100" y="590" width="130" height="40" as="geometry" />
        </mxCell>
        <mxCell id="CdtWvo1D5bKg0D1mY81U-30" value="6.插入蔬菜基本信息" style="rounded=0;whiteSpace=wrap;html=1;" vertex="1" parent="1">
          <mxGeometry x="100" y="530" width="130" height="40" as="geometry" />
        </mxCell>
        <mxCell id="CdtWvo1D5bKg0D1mY81U-31" value="4.删除蔬菜" style="rounded=0;whiteSpace=wrap;html=1;" vertex="1" parent="1">
          <mxGeometry x="100" y="410" width="130" height="40" as="geometry" />
        </mxCell>
        <mxCell id="CdtWvo1D5bKg0D1mY81U-32" value="5.修改蔬菜" style="rounded=0;whiteSpace=wrap;html=1;" vertex="1" parent="1">
          <mxGeometry x="100" y="470" width="130" height="40" as="geometry" />
        </mxCell>
        <mxCell id="CdtWvo1D5bKg0D1mY81U-33" value="3.插入蔬菜" style="rounded=0;whiteSpace=wrap;html=1;" vertex="1" parent="1">
          <mxGeometry x="100" y="350" width="130" height="40" as="geometry" />
        </mxCell>
        <mxCell id="CdtWvo1D5bKg0D1mY81U-35" style="edgeStyle=orthogonalEdgeStyle;rounded=0;orthogonalLoop=1;jettySize=auto;html=1;exitX=0.5;exitY=1;exitDx=0;exitDy=0;" edge="1" parent="1" source="CdtWvo1D5bKg0D1mY81U-27" target="CdtWvo1D5bKg0D1mY81U-27">
          <mxGeometry relative="1" as="geometry" />
        </mxCell>
        <mxCell id="CdtWvo1D5bKg0D1mY81U-36" style="edgeStyle=orthogonalEdgeStyle;rounded=0;orthogonalLoop=1;jettySize=auto;html=1;exitX=0.5;exitY=1;exitDx=0;exitDy=0;" edge="1" parent="1">
          <mxGeometry relative="1" as="geometry">
            <mxPoint x="595" y="690" as="sourcePoint" />
            <mxPoint x="595" y="690" as="targetPoint" />
          </mxGeometry>
        </mxCell>
      </root>
    </mxGraphModel>
  </diagram>
</mxfile>
